\relax 
\providecommand\hyper@newdestlabel[2]{}
\providecommand\babel@aux[2]{}
\@nameuse{bbl@beforestart}
\catcode `"\active 
\catcode `-\active 
\providecommand\HyperFirstAtBeginDocument{\AtBeginDocument}
\HyperFirstAtBeginDocument{\ifx\hyper@anchor\@undefined
\global\let\oldcontentsline\contentsline
\gdef\contentsline#1#2#3#4{\oldcontentsline{#1}{#2}{#3}}
\global\let\oldnewlabel\newlabel
\gdef\newlabel#1#2{\newlabelxx{#1}#2}
\gdef\newlabelxx#1#2#3#4#5#6{\oldnewlabel{#1}{{#2}{#3}}}
\AtEndDocument{\ifx\hyper@anchor\@undefined
\let\contentsline\oldcontentsline
\let\newlabel\oldnewlabel
\fi}
\fi}
\global\let\hyper@last\relax 
\gdef\HyperFirstAtBeginDocument#1{#1}
\providecommand\HyField@AuxAddToFields[1]{}
\providecommand\HyField@AuxAddToCoFields[2]{}
\babel@aux{czech}{}
\@writefile{toc}{\contentsline {section}{\numberline {1)}Zad\'an\IeC {\'\i }}{1}{section.1}\protected@file@percent }
\@writefile{lof}{\contentsline {figure}{\numberline {1}{\ignorespaces Zapojen\IeC {\'\i } experimentu\relax }}{1}{figure.caption.1}\protected@file@percent }
\@writefile{toc}{\contentsline {section}{\numberline {2)}Zm\v e\v ren\'a data}{2}{section.2}\protected@file@percent }
\@writefile{lot}{\contentsline {table}{\numberline {1}{\ignorespaces Data ze vzorku \# 1\relax }}{2}{table.caption.2}\protected@file@percent }
\@writefile{lot}{\contentsline {table}{\numberline {2}{\ignorespaces Data ze vzorku \# 2\relax }}{2}{table.caption.2}\protected@file@percent }
\@writefile{lot}{\contentsline {table}{\numberline {3}{\ignorespaces Data ze vzorku \# 3\relax }}{2}{table.caption.2}\protected@file@percent }
\@writefile{lot}{\contentsline {table}{\numberline {4}{\ignorespaces Data ze vzorku \# 4\relax }}{2}{table.caption.2}\protected@file@percent }
\@writefile{lot}{\contentsline {table}{\numberline {5}{\ignorespaces Nam\v e\v ren\'a data - kompar\'ator\relax }}{3}{table.caption.3}\protected@file@percent }
\@writefile{toc}{\contentsline {section}{\numberline {3)}VA charakteristiky}{4}{section.3}\protected@file@percent }
\@writefile{lof}{\contentsline {figure}{\numberline {2}{\ignorespaces VA charakteristika 1. vzorku\relax }}{5}{figure.caption.4}\protected@file@percent }
\@writefile{lof}{\contentsline {figure}{\numberline {3}{\ignorespaces VA charakteristika 2. vzorku\relax }}{5}{figure.caption.5}\protected@file@percent }
\@writefile{lof}{\contentsline {figure}{\numberline {4}{\ignorespaces VA charakteristika 3. vzorku\relax }}{6}{figure.caption.6}\protected@file@percent }
\@writefile{lof}{\contentsline {figure}{\numberline {5}{\ignorespaces VA charakteristika 4. vzorku\relax }}{6}{figure.caption.7}\protected@file@percent }
\@writefile{lof}{\contentsline {figure}{\numberline {6}{\ignorespaces Charakteristika kompar\'atoru\relax }}{7}{figure.caption.8}\protected@file@percent }
\@writefile{toc}{\contentsline {section}{\numberline {4)}Z\'av\v er}{7}{section.4}\protected@file@percent }
\gdef \@abspage@last{7}
