\relax 
\providecommand\hyper@newdestlabel[2]{}
\providecommand\babel@aux[2]{}
\@nameuse{bbl@beforestart}
\catcode `"\active 
\catcode `-\active 
\providecommand\HyperFirstAtBeginDocument{\AtBeginDocument}
\HyperFirstAtBeginDocument{\ifx\hyper@anchor\@undefined
\global\let\oldcontentsline\contentsline
\gdef\contentsline#1#2#3#4{\oldcontentsline{#1}{#2}{#3}}
\global\let\oldnewlabel\newlabel
\gdef\newlabel#1#2{\newlabelxx{#1}#2}
\gdef\newlabelxx#1#2#3#4#5#6{\oldnewlabel{#1}{{#2}{#3}}}
\AtEndDocument{\ifx\hyper@anchor\@undefined
\let\contentsline\oldcontentsline
\let\newlabel\oldnewlabel
\fi}
\fi}
\global\let\hyper@last\relax 
\gdef\HyperFirstAtBeginDocument#1{#1}
\providecommand\HyField@AuxAddToFields[1]{}
\providecommand\HyField@AuxAddToCoFields[2]{}
\babel@aux{czech}{}
\@writefile{toc}{\contentsline {section}{\numberline {1)}Zad\'an\IeC {\'\i }}{1}{section.1}\protected@file@percent }
\@writefile{lof}{\contentsline {figure}{\numberline {1}{\ignorespaces Zapojen\IeC {\'\i } experimentu\relax }}{1}{figure.caption.1}\protected@file@percent }
\@writefile{toc}{\contentsline {section}{\numberline {2)}Zm\v e\v ren\'a data}{2}{section.2}\protected@file@percent }
\@writefile{toc}{\contentsline {section}{\numberline {3)}Nab\IeC {\'\i }jec\IeC {\'\i } charakteristiky}{2}{section.3}\protected@file@percent }
\@writefile{lof}{\contentsline {figure}{\numberline {2}{\ignorespaces Charakteristika opot\v rebovan\v ej\v s\IeC {\'\i }ch NiCd a Pb akumul\'ator\r u\relax }}{3}{figure.caption.3}\protected@file@percent }
\@writefile{lof}{\contentsline {figure}{\numberline {3}{\ignorespaces Charakteristika LiFePo4 akumul\'atoru\relax }}{3}{figure.caption.4}\protected@file@percent }
\@writefile{toc}{\contentsline {section}{\numberline {4)}Z\'av\v er}{4}{section.4}\protected@file@percent }
\gdef \@abspage@last{4}
